[	
	{"cid": 1,"answer":"c", "question":"Where are the three offices of Transamerica Life Bermuda located?" , "a" :"Hong Kong, Singapore and Shanghai", "b":"Hong Kong, Bermuda and USA", "c":"Bermuda, Hong Kong and Singapore "},	
	{"cid": 2,"answer":"a", "question":"What is the name of the architecture in Transamerica Life Bermuda’s logo?" , "a" :"Transamerica Pyramid", "b":"The Pyramid of Transamerica", "c":"Le Transamerica Tower"} ,
	{"cid": 3,"answer":"b", "question":"Since when has Transamerica been managing universal life portfolios?" , "a" :"1980", "b":"1981", "c":"1982"} ,	
	{"cid": 4,"answer":"b", "question":"What is Transamerica Life Bermuda’s commitment / tagline to our customers? " , "a" :"Protecting Health and Preserving Wealth", "b":"Safeguarding Generations of Wealth", "c":"Demonstrating Expertise in All Insurance"}, 	
	{"cid": 5,"answer":"b", "question":" Which one is Universal Life Alpha’s product feature?" , "a" :"Life Protection and Cash Value Accumulation", "b":"Coverage Certainty ", "c":"Wealth Diversification and Transfer"},	
	{"cid": 6,"answer":"b", "question":" Which one is the policy term of Universal Life Alpha?" , "a" :"To age 100", "b":"No maturity date", "c":"To age 121"},	
	{"cid": 7,"answer":"b", "question":"To which region(s) is Select Class available for Universal Life Alpha?" , "a" :"Region 1S only", "b":"Region 1S, Region 1 & Region 2", "c":"Region 1S & Region 1"}
]