{
    "list": [{
        "Title": "LUMA : Fundamentals of Innovation through Human-Centered Design",
        "Venue": "Training room, eXellerator Lab, 9th Floor SCT",
        "Number_of_seats_available": 20,
        "Date": "28th and 29th March",
        "Description": " Two-day Fundamentals workshop introduces you to the LUMA System of Innovation — a flexible framework for practicing the discipline of Human-Centered Design.  Through a dynamic mix of lectures and hands-on activities you will learn to apply a versatile system that:"
    }, 
    {
        "Title": "Reimagine Problem Solving: A Teaser to Design Thinking",
        "Venue": "Training room, eXellerator Lab, 9th Floor SCT",
        "Number_of_seats_available": 20,
        "Date": "5 th April 2018",

        "Description": "In this teaser to Design Thinking you will get introduced to the concepts of Design Thinking.This is a learning process to help you reimagine problem solving.Over a day long intensive hands - on session you will get to know:"
    }
]
}
