Name,Folder,Round1,Round2,Round3,Click
1,1,hello,i have something for u,what else u want,nice
2,2,how are you,i have something for u,what else u want,testing
3,4,nice to see u,i have something for u,what else u want,click
4,4,welcome,i have something for u,what else u want,notCLikc
